-------------------------------------------------------------------------------
Test set: vn.mobileid.templatedkportal.TemplatedkportalApplicationTests
-------------------------------------------------------------------------------
Tests run: 1, Failures: 0, Errors: 0, Skipped: 0, Time elapsed: 4.218 s - in vn.mobileid.templatedkportal.TemplatedkportalApplicationTests
